module github.com/pjox/oscar-website

go 1.17

require (
	github.com/wowchemy/wowchemy-hugo-modules/wowchemy-cms/v5 v5.0.0-20220325140950-3ee572954ab1 // indirect
	github.com/wowchemy/wowchemy-hugo-modules/wowchemy/v5 v5.0.0-20220325140950-3ee572954ab1 // indirect
)
